…
```
## Warning: `...` is not empty.
## 
## We detected these problematic arguments:
## * `needs_dots`
## 
## These dots only exist to allow future extensions and should be empty.
## Did you misspecify an argument?
```

```
## # A tibble: 208 x 4
##    Employee JobGrade Gender Manager 
##       <dbl>    <dbl> <chr>  <chr>   
##  1        1        1 Male   Non-mgmt
##  2        2        1 Female Non-mgmt
##  3        3        1 Female Non-mgmt
##  4        4        1 Female Non-mgmt
##  5        5        1 Male   Non-mgmt
##  6        6        1 Female Non-mgmt
##  7        7        1 Female Non-mgmt
##  8        8        1 Male   Non-mgmt
##  9        9        1 Female Non-mgmt
## 10       10        1 Female Non-mgmt
## # ... with 198 more rows
```
…
