Lesson 5 Recoding Data | Basic Analytics in R
…
Assign the resulting tibble back to the Bank tibble.

5.4.2 Recoding categorical data

Considering the following code, which is more illustrative than useful:

Bank %>% mutate(Manager = recode(JobGrade, 
  "1" = "Non-mgmt",
  "2" = "Non-mgmt",
  "3" = "Non-mgmt",
  "4" = "Non-mgmt",
  .default = "Mgmt"))  %>% 
  select(Employee, JobGrade, Gender, Manager)

## # A tibble: 208 x 4
##    Employee JobGrade Gender Manager 
##       <dbl>    <dbl> <chr>  <chr>   
##  1        1        1 Male   Non-mgmt
##  2        2        1 Female Non-mgmt
##  3        3        1 Female Non-mgmt
##  4        4        1 Female Non-mgmt
##  5        5        1 Male   Non-mgmt
##  6        6        1 Female Non-mgmt
##  7        7        1 Female Non-mgmt
##  8        8        1 Male   Non-mgmt
##  9        9        1 Female Non-mgmt
## 10       10        1 Female Non-mgmt
## # ... with 198 more rows
…
